…
``` r
rf_res %>%  collect_metrics(summarize = FALSE) 
```

    ## # A tibble: 35 × 5
    ##    id    .metric   .estimator .estimate .config             
    ##    <chr> <chr>     <chr>          <dbl> <chr>               
    ##  1 Fold1 recall    binary         1     Preprocessor1_Model1
    ##  2 Fold1 precision binary         0.969 Preprocessor1_Model1
    ##  3 Fold1 f_meas    binary         0.984 Preprocessor1_Model1
    ##  4 Fold1 accuracy  binary         0.969 Preprocessor1_Model1
    ##  5 Fold1 sens      binary         1     Preprocessor1_Model1
    ##  6 Fold1 spec      binary         0     Preprocessor1_Model1
    ##  7 Fold1 roc_auc   binary         0.628 Preprocessor1_Model1
    ##  8 Fold2 recall    binary         1     Preprocessor1_Model1
    ##  9 Fold2 precision binary         0.969 Preprocessor1_Model1
    ## 10 Fold2 f_meas    binary         0.984 Preprocessor1_Model1
    ## # ℹ 25 more rows
…
